{
  "Esportes": 3043,
  "Computer e Internet": 5539,
  "Beauty & Style": 104566,
  "Animais de Estimação": 1887,
  "Hogar y Jardinería": 1765,
  "Embarazo y Maternidad": 7895,
  "Services Yahoo!": 3177,
  "Family & Relationships": 517849,
  "Freunde & Familie": 2626,
  "Informatique et internet": 10323,
  "Santé": 5889,
  "Sciences sociales": 3277,
  "Salud": 3753,
  "Sociedad y Cultura": 22217,
  "Pets": 90258,
  "Educación y Formación": 4915,
  "Environnement": 289,
  "Medio Ambiente": 552,
  "Ciencias Sociales": 11051,
  "Gesundheit": 2759,
  "Ordenadores e Internet": 5433,
  "Maison et jardin": 2169,
  "Scienze sociali": 3166,
  "Kunst & Geisteswissenschaft": 1220,
  "Negocios y Finanzas": 4607,
  "Viagens": 1433,
  "Nachrichten & Medien": 596,
  "Società e culture": 3901,
  "Local Businesses": 16120,
  "Pregnancy & Parenting": 97489,
  "Yahoo! Produkte": 1448,
  "Negocios Locales": 2206,
  "Mascotas": 4010,
  "Turismo": 986,
  "Salute": 2543,
  "Tiere": 1481,
  "Dining Out": 14498,
  "Grossesse et enfants": 2038,
  "Yahoo!7 Products": 865,
  "Sport": 3307,
  "Animali da compagnia": 1078,
  "Musique, ciné, tv, loisirs": 9255,
  "Scuola ed educazione": 2357,
  "Eletrônicos": 1745,
  "Entreprises et finance": 4364,
  "Juegos y Recreación": 3983,
  "Servizi Yahoo!": 2009,
  "Ecologia e Meio Ambiente": 384,
  "Musica e intrattenimento": 6691,
  "Education & Reference": 206440,
  "Yahoo! Products": 122886,
  "Carros e Transportes": 1340,
  "Science & Mathematics": 169586,
  "Electrónica de Consumo": 2857,
  "Computadores e Internet": 9464,
  "Bellezza e stile": 2388,
  "Automóviles y Transporte": 1643,
  "Gravidanza e genitori": 752,
  "Travel": 89783,
  "Unterhaltung & Musik": 4405,
  "Internet y Computadoras": 4799,
  "Amour et relations": 20832,
  "Casa e Jardim": 759,
  "Notizie ed eventi": 1184,
  "Computers & Internet": 281696,
  "Umwelt": 111,
  "Familia, Amor y Relaciones": 25556,
  "Entertainment & Music": 440548,
  "Image et son": 1774,
  "Autos y Medios de Transporte": 779,
  "Automobile et transport": 1885,
  "Arte e cultura": 1878,
  "Society & Culture": 295340,
  "Environment": 7513,
  "Productos Electrónicos": 785,
  "Comidas e Bebidas": 1738,
  "Belleza y Moda": 2491,
  "Politica e governo": 2118,
  "Animaux": 2205,
  "Educación": 5173,
  "News & Events": 34520,
  "Noticias y Eventos": 1085,
  "Artes e Humanidades": 3623,
  "Deportes": 9005,
  "Salud y Belleza": 11550,
  "Societé et culture": 8770,
  "Business & Finance": 265182,
  "Schule & Bildung": 2538,
  "Música y Entretenimiento": 22268,
  "Familia y Relaciones": 9302,
  "Arte y Humanidades": 12236,
  "Gravidez e Maternidade": 2503,
  "Cars & Transportation": 98247,
  "Social Science": 34153,
  "Estremo Oriente": 2,
  "Asien": 5,
  "Health": 278942,
  "Família e Relacionamentos": 18547,
  "Asie Pacifique": 8,
  "Ásia": 2,
  "Ambiente": 37,
  "Beauté et mode": 2620,
  "Örtliche Unternehmen": 174,
  "Food & Drink": 95519,
  "Arts & Humanities": 113533,
  "Computer & Internet": 4305,
  "Consumer Electronics": 72048,
  "Viajes": 3073,
  "Computadoras e Internet": 10134,
  "Electrónica de consumo": 449,
  "Ciências Sociais": 3309,
  "Arts et sciences humaines": 4590,
  "Casa y Jardín": 599,
  "Auto e trasporti": 824,
  "Negócios e Finanças": 2253,
  "Restaurants": 384,
  "Música y Ocio": 8237,
  "Autos y Transporte": 1907,
  "Governo e Política": 6071,
  "Sociedade e Cultura": 11730,
  "Relaciones Familiares": 6591,
  "Unterhaltungselektronik": 736,
  "Gastronomie et boisson": 2138,
  "Negozi ed aziende locali": 219,
  "Yahoo! y sus Productos": 5110,
  "Actualités et événements": 11114,
  "Juegos y Aficiones": 1547,
  "Elettronica di consumo": 1241,
  "Política y Gobierno": 12976,
  "Ciencia y Matemáticas": 2350,
  "Autos, Transport & Verkehr": 1239,
  "Viaggi": 1468,
  "Politik & Verwaltung": 1608,
  "Restaurantes": 716,
  "Noticias y Actualidad": 674,
  "Sciences et mathématiques": 3534,
  "Asia Pacific": 283,
  "Freizeit & Spiele": 1101,
  "Notícias e Eventos": 742,
  "Gastronomía": 1076,
  "Produtos do Yahoo!": 1909,
  "Belleza y Estilo": 4824,
  "Ciencias sociales": 1487,
  "Affari e finanza": 1747,
  "Économie locale": 664,
  "Ciencias y Matemáticas": 8465,
  "Giochi e passatempi": 1700,
  "Casa e giardino": 650,
  "Productos Yahoo!": 1031,
  "Gesellschaft & Kultur": 3447,
  "Jeux et hobbies": 2171,
  "Essen & Trinken": 2011,
  "Wirtschaft & Finanzen": 1147,
  "Voyage": 2288,
  "Entretenimento e Música": 10664,
  "Educação e Referência": 6256,
  "Saúde e Beleza": 5320,
  "Politique et gouvernement": 8172,
  "Ciências e Matemática": 5809,
  "Home & Garden": 73755,
  "Games & Recreation": 80564,
  "Reisen": 1153,
  "Relazioni e famiglia": 7440,
  "Mangiare fuori": 173,
  "Politics & Government": 152564,
  "Wissenschaft & Mathematik": 2075,
  "Ausgehen": 504,
  "Haus & Garten": 1187,
  "Mangiare e bere": 1165,
  "Negócios Regionais": 369,
  "Sports": 146396,
  "Schwangerschaft & Erziehung": 530,
  "Matematica e scienze": 1117,
  "Comer y Beber": 4112,
  "Beleza e Estilo": 2928,
  "Enseignement et référence": 6925,
  "Sozialwissenschaft": 1764,
  "Jogos e Recreação": 1807
}
